[gd_resource type="DynamicFont" load_steps=2 format=2]

[ext_resource path="res://fonts/LuviaIntl.ttf" type="DynamicFontData" id=1]

[resource]
outline_size = 1
outline_color = Color( 0.0784314, 0.0784314, 0.0784314, 1 )
font_data = ExtResource( 1 )
